simulation/qsim/Neander.msim.vcd
$comment
	File created using the following command:
		vcd file Neander.msim.vcd -direction
$end
$date
	Sun Jul 06 15:12:16 2025
$end
$version
	ModelSim Version 10.1d
$end
$timescale
	1ps
$end
$scope module Neander_vlg_vec_tst $end
$var reg 1 ! clk_placa $end
$var reg 1 " reset $end
$var reg 1 # seletor $end
$var reg 1 $ step_up $end
$var wire 1 % Acc [7] $end
$var wire 1 & Acc [6] $end
$var wire 1 ' Acc [5] $end
$var wire 1 ( Acc [4] $end
$var wire 1 ) Acc [3] $end
$var wire 1 * Acc [2] $end
$var wire 1 + Acc [1] $end
$var wire 1 , Acc [0] $end
$var wire 1 - accD [6] $end
$var wire 1 . accD [5] $end
$var wire 1 / accD [4] $end
$var wire 1 0 accD [3] $end
$var wire 1 1 accD [2] $end
$var wire 1 2 accD [1] $end
$var wire 1 3 accD [0] $end
$var wire 1 4 accU [6] $end
$var wire 1 5 accU [5] $end
$var wire 1 6 accU [4] $end
$var wire 1 7 accU [3] $end
$var wire 1 8 accU [2] $end
$var wire 1 9 accU [1] $end
$var wire 1 : accU [0] $end
$var wire 1 ; HLT $end
$var wire 1 < N $end
$var wire 1 = pc [7] $end
$var wire 1 > pc [6] $end
$var wire 1 ? pc [5] $end
$var wire 1 @ pc [4] $end
$var wire 1 A pc [3] $end
$var wire 1 B pc [2] $end
$var wire 1 C pc [1] $end
$var wire 1 D pc [0] $end
$var wire 1 E pcD [6] $end
$var wire 1 F pcD [5] $end
$var wire 1 G pcD [4] $end
$var wire 1 H pcD [3] $end
$var wire 1 I pcD [2] $end
$var wire 1 J pcD [1] $end
$var wire 1 K pcD [0] $end
$var wire 1 L pcU [6] $end
$var wire 1 M pcU [5] $end
$var wire 1 N pcU [4] $end
$var wire 1 O pcU [3] $end
$var wire 1 P pcU [2] $end
$var wire 1 Q pcU [1] $end
$var wire 1 R pcU [0] $end
$var wire 1 S Z $end
$var wire 1 T sampler $end
$scope module i1 $end
$var wire 1 U gnd $end
$var wire 1 V vcc $end
$var wire 1 W unknown $end
$var tri1 1 X devclrn $end
$var tri1 1 Y devpor $end
$var tri1 1 Z devoe $end
$var wire 1 [ N~output_o $end
$var wire 1 \ Z~output_o $end
$var wire 1 ] pc[7]~output_o $end
$var wire 1 ^ pc[6]~output_o $end
$var wire 1 _ pc[5]~output_o $end
$var wire 1 ` pc[4]~output_o $end
$var wire 1 a pc[3]~output_o $end
$var wire 1 b pc[2]~output_o $end
$var wire 1 c pc[1]~output_o $end
$var wire 1 d pc[0]~output_o $end
$var wire 1 e Acc[7]~output_o $end
$var wire 1 f Acc[6]~output_o $end
$var wire 1 g Acc[5]~output_o $end
$var wire 1 h Acc[4]~output_o $end
$var wire 1 i Acc[3]~output_o $end
$var wire 1 j Acc[2]~output_o $end
$var wire 1 k Acc[1]~output_o $end
$var wire 1 l Acc[0]~output_o $end
$var wire 1 m HLT~output_o $end
$var wire 1 n accD[6]~output_o $end
$var wire 1 o accD[5]~output_o $end
$var wire 1 p accD[4]~output_o $end
$var wire 1 q accD[3]~output_o $end
$var wire 1 r accD[2]~output_o $end
$var wire 1 s accD[1]~output_o $end
$var wire 1 t accD[0]~output_o $end
$var wire 1 u accU[6]~output_o $end
$var wire 1 v accU[5]~output_o $end
$var wire 1 w accU[4]~output_o $end
$var wire 1 x accU[3]~output_o $end
$var wire 1 y accU[2]~output_o $end
$var wire 1 z accU[1]~output_o $end
$var wire 1 { accU[0]~output_o $end
$var wire 1 | pcD[6]~output_o $end
$var wire 1 } pcD[5]~output_o $end
$var wire 1 ~ pcD[4]~output_o $end
$var wire 1 !! pcD[3]~output_o $end
$var wire 1 "! pcD[2]~output_o $end
$var wire 1 #! pcD[1]~output_o $end
$var wire 1 $! pcD[0]~output_o $end
$var wire 1 %! pcU[6]~output_o $end
$var wire 1 &! pcU[5]~output_o $end
$var wire 1 '! pcU[4]~output_o $end
$var wire 1 (! pcU[3]~output_o $end
$var wire 1 )! pcU[2]~output_o $end
$var wire 1 *! pcU[1]~output_o $end
$var wire 1 +! pcU[0]~output_o $end
$var wire 1 ,! clk_placa~input_o $end
$var wire 1 -! step_up~input_o $end
$var wire 1 .! seletor~input_o $end
$var wire 1 /! inst4|inst|inst2~combout $end
$var wire 1 0! reset~input_o $end
$var wire 1 1! inst7|inst10~0_q $end
$var wire 1 2! inst8|inst14~q $end
$var wire 1 3! inst8|inst12~q $end
$var wire 1 4! inst8|inst10~q $end
$var wire 1 5! inst14|inst2|inst50~3_combout $end
$var wire 1 6! inst14|inst|inst|inst14|inst~combout $end
$var wire 1 7! inst14|inst|inst|inst2~q $end
$var wire 1 8! inst14|inst1|inst4~2_combout $end
$var wire 1 9! inst14|inst1|inst4~9_combout $end
$var wire 1 :! inst14|inst|inst|inst13~0_combout $end
$var wire 1 ;! inst14|inst1|inst4~1_combout $end
$var wire 1 <! inst12|inst1~combout $end
$var wire 1 =! inst14|inst2|inst34~0_combout $end
$var wire 1 >! inst14|inst2|inst36~combout $end
$var wire 1 ?! inst3|inst~q $end
$var wire 1 @! inst14|inst1|inst4~3_combout $end
$var wire 1 A! inst12|inst~combout $end
$var wire 1 B! inst|inst8|inst|inst2~0_combout $end
$var wire 1 C! inst14|inst1|inst4~4_combout $end
$var wire 1 D! inst14|inst2|inst24~combout $end
$var wire 1 E! inst|inst8|inst|inst2~1_combout $end
$var wire 1 F! inst|inst8|inst1|inst2~0_combout $end
$var wire 1 G! inst|inst8|inst1|inst2~1_combout $end
$var wire 1 H! inst|inst8|inst1|inst2~2_combout $end
$var wire 1 I! inst|inst8|inst1|inst2~3_combout $end
$var wire 1 J! inst3|inst4~q $end
$var wire 1 K! inst|inst|inst1|inst4~0_combout $end
$var wire 1 L! inst|inst8|inst2|inst2~0_combout $end
$var wire 1 M! inst|inst8|inst2|inst2~1_combout $end
$var wire 1 N! inst|inst8|inst2|inst2~2_combout $end
$var wire 1 O! inst3|inst6~q $end
$var wire 1 P! inst|inst8|inst3|inst2~11_combout $end
$var wire 1 Q! inst|inst8|inst3|inst2~8_combout $end
$var wire 1 R! inst|inst8|inst3|inst2~9_combout $end
$var wire 1 S! inst|inst8|inst3|inst2~10_combout $end
$var wire 1 T! inst3|inst8~q $end
$var wire 1 U! inst|inst|inst2|inst4~0_combout $end
$var wire 1 V! inst|inst|inst2|inst4~1_combout $end
$var wire 1 W! inst|inst|inst5|inst4~0_combout $end
$var wire 1 X! inst|inst8|inst4|inst2~1_combout $end
$var wire 1 Y! inst|inst|inst4|inst4~0_combout $end
$var wire 1 Z! inst|inst|inst4|inst4~1_combout $end
$var wire 1 [! inst|inst8|inst4|inst2~2_combout $end
$var wire 1 \! inst|inst8|inst4|inst2~0_combout $end
$var wire 1 ]! inst3|inst10~q $end
$var wire 1 ^! inst|inst|inst6|inst4~0_combout $end
$var wire 1 _! inst|inst8|inst5|inst2~11_combout $end
$var wire 1 `! inst|inst8|inst5|inst2~8_combout $end
$var wire 1 a! inst|inst8|inst5|inst2~9_combout $end
$var wire 1 b! inst|inst8|inst5|inst2~10_combout $end
$var wire 1 c! inst3|inst12~q $end
$var wire 1 d! inst|inst|inst6|inst4~1_combout $end
$var wire 1 e! inst|inst8|inst6|inst2~0_combout $end
$var wire 1 f! inst|inst8|inst6|inst2~1_combout $end
$var wire 1 g! inst|inst8|inst6|inst2~2_combout $end
$var wire 1 h! inst3|inst14~q $end
$var wire 1 i! inst|inst8|inst7|inst2~2_combout $end
$var wire 1 j! inst|inst8|inst7|inst2~3_combout $end
$var wire 1 k! inst|inst8|inst7|inst2~5_combout $end
$var wire 1 l! inst|inst9~0_combout $end
$var wire 1 m! inst|inst9~1_combout $end
$var wire 1 n! inst|inst9~combout $end
$var wire 1 o! inst9|inst4~q $end
$var wire 1 p! inst14|inst1|inst4~6_combout $end
$var wire 1 q! inst14|inst1|inst4~7_combout $end
$var wire 1 r! inst14|inst2|inst43~0_combout $end
$var wire 1 s! inst14|inst2|inst43~1_combout $end
$var wire 1 t! inst14|inst|inst|inst14|inst~2_combout $end
$var wire 1 u! inst14|inst|inst1|inst3~0_combout $end
$var wire 1 v! inst14|inst1|inst4~8_combout $end
$var wire 1 w! inst14|inst2|inst50~2_combout $end
$var wire 1 x! inst14|inst2|inst38~0_combout $end
$var wire 1 y! inst14|inst|inst|inst14|inst~3_combout $end
$var wire 1 z! inst14|inst|inst|inst8|inst~combout $end
$var wire 1 {! inst14|inst|inst|inst1~q $end
$var wire 1 |! inst14|inst|inst1|inst3~1_combout $end
$var wire 1 }! inst8|inst16~q $end
$var wire 1 ~! inst14|inst1|inst4~0_combout $end
$var wire 1 !" inst14|inst|inst|inst96|inst~combout $end
$var wire 1 "" inst14|inst|inst|inst~q $end
$var wire 1 #" inst14|inst2|inst15~0_combout $end
$var wire 1 $" inst14|inst2|inst15~1_combout $end
$var wire 1 %" inst10|inst~0_combout $end
$var wire 1 &" inst10|inst4|inst6~0_combout $end
$var wire 1 '" inst10|inst~q $end
$var wire 1 (" inst10|inst8|inst6~0_combout $end
$var wire 1 )" inst10|inst22|inst6~4_combout $end
$var wire 1 *" inst10|inst1~q $end
$var wire 1 +" inst10|inst10|inst6~0_combout $end
$var wire 1 ," inst10|inst10|inst6~1_combout $end
$var wire 1 -" inst10|inst2~q $end
$var wire 1 ." inst10|inst11|inst6~0_combout $end
$var wire 1 /" inst10|inst11|inst6~1_combout $end
$var wire 1 0" inst10|inst5~q $end
$var wire 1 1" inst10|inst24~combout $end
$var wire 1 2" inst10|inst14|inst6~0_combout $end
$var wire 1 3" inst10|inst21~q $end
$var wire 1 4" inst10|inst30~combout $end
$var wire 1 5" inst10|inst19|inst6~0_combout $end
$var wire 1 6" inst10|inst27~q $end
$var wire 1 7" inst10|inst20|inst6~0_combout $end
$var wire 1 8" inst10|inst20|inst6~1_combout $end
$var wire 1 9" inst10|inst33~q $end
$var wire 1 :" inst10|inst22|inst6~2_combout $end
$var wire 1 ;" inst10|inst22|inst6~3_combout $end
$var wire 1 <" inst10|inst39~q $end
$var wire 1 =" inst14|inst1|inst4~5_combout $end
$var wire 1 >" inst14|inst2|inst16~0_combout $end
$var wire 1 ?" inst5|inst15|inst2~0_combout $end
$var wire 1 @" inst14|inst2|inst7~0_combout $end
$var wire 1 A" inst14|inst2|inst50~combout $end
$var wire 1 B" inst14|inst2|inst7~combout $end
$var wire 1 C" inst5|inst16~q $end
$var wire 1 D" inst11|Mux0_rtl_0|auto_generated|ram_block1a7~portadataout $end
$var wire 1 E" inst7|inst14~1_q $end
$var wire 1 F" inst14|inst2|inst22~0_combout $end
$var wire 1 G" inst14|inst2|inst22~1_combout $end
$var wire 1 H" inst7|inst10~3_q $end
$var wire 1 I" inst7|inst14~4_combout $end
$var wire 1 J" inst5|inst13|inst2~0_combout $end
$var wire 1 K" inst5|inst14~q $end
$var wire 1 L" inst11|Mux0_rtl_0|auto_generated|ram_block1a6~portadataout $end
$var wire 1 M" inst7|inst12~1_q $end
$var wire 1 N" inst7|inst12~4_combout $end
$var wire 1 O" inst5|inst11|inst2~0_combout $end
$var wire 1 P" inst5|inst12~q $end
$var wire 1 Q" inst11|Mux0_rtl_0|auto_generated|ram_block1a1~portadataout $end
$var wire 1 R" inst7|inst10~1_q $end
$var wire 1 S" inst7|inst10~4_combout $end
$var wire 1 T" inst5|inst9|inst2~0_combout $end
$var wire 1 U" inst5|inst10~q $end
$var wire 1 V" inst11|Mux0_rtl_0|auto_generated|ram_block1a5~portadataout $end
$var wire 1 W" inst7|inst8~1_q $end
$var wire 1 X" inst7|inst8~4_combout $end
$var wire 1 Y" inst5|inst7|inst2~0_combout $end
$var wire 1 Z" inst5|inst8~q $end
$var wire 1 [" inst11|Mux0_rtl_0|auto_generated|ram_block1a2~portadataout $end
$var wire 1 \" inst7|inst6~1_q $end
$var wire 1 ]" inst7|inst6~4_combout $end
$var wire 1 ^" inst5|inst5|inst2~0_combout $end
$var wire 1 _" inst5|inst6~q $end
$var wire 1 `" inst11|Mux0_rtl_0|auto_generated|ram_block1a4~portadataout $end
$var wire 1 a" inst7|inst4~1_q $end
$var wire 1 b" inst7|inst4~4_combout $end
$var wire 1 c" inst5|inst3|inst2~0_combout $end
$var wire 1 d" inst5|inst4~q $end
$var wire 1 e" inst11|Mux0_rtl_0|auto_generated|ram_block1a3~portadataout $end
$var wire 1 f" inst7|inst~1_q $end
$var wire 1 g" inst7|inst~4_combout $end
$var wire 1 h" inst5|inst2|inst2~0_combout $end
$var wire 1 i" inst5|inst~q $end
$var wire 1 j" inst11|Mux0_rtl_0|auto_generated|ram_block1a0~portadataout $end
$var wire 1 k" inst7|inst16~1_q $end
$var wire 1 l" inst7|inst16~4_combout $end
$var wire 1 m" inst|inst8|inst7|inst2~4_combout $end
$var wire 1 n" inst3|inst16~q $end
$var wire 1 o" inst15|inst6|inst7~0_combout $end
$var wire 1 p" inst15|inst5|inst4~0_combout $end
$var wire 1 q" inst15|inst4|inst2~0_combout $end
$var wire 1 r" inst15|inst3|inst8~0_combout $end
$var wire 1 s" inst15|inst2|inst16~0_combout $end
$var wire 1 t" inst15|inst1|inst7~0_combout $end
$var wire 1 u" inst15|inst|inst1~0_combout $end
$var wire 1 v" inst16|inst6|inst7~0_combout $end
$var wire 1 w" inst16|inst5|inst4~0_combout $end
$var wire 1 x" inst16|inst4|inst2~0_combout $end
$var wire 1 y" inst16|inst3|inst8~0_combout $end
$var wire 1 z" inst16|inst2|inst16~0_combout $end
$var wire 1 {" inst16|inst1|inst7~0_combout $end
$var wire 1 |" inst16|inst|inst1~0_combout $end
$var wire 1 }" inst17|inst6|inst7~0_combout $end
$var wire 1 ~" inst17|inst5|inst4~0_combout $end
$var wire 1 !# inst17|inst4|inst2~0_combout $end
$var wire 1 "# inst17|inst3|inst8~0_combout $end
$var wire 1 ## inst17|inst2|inst16~0_combout $end
$var wire 1 $# inst17|inst1|inst7~0_combout $end
$var wire 1 %# inst17|inst|inst1~0_combout $end
$var wire 1 &# inst18|inst6|inst7~0_combout $end
$var wire 1 '# inst18|inst5|inst4~0_combout $end
$var wire 1 (# inst18|inst4|inst2~0_combout $end
$var wire 1 )# inst18|inst3|inst8~0_combout $end
$var wire 1 *# inst18|inst2|inst16~0_combout $end
$var wire 1 +# inst18|inst1|inst7~0_combout $end
$var wire 1 ,# inst18|inst|inst1~0_combout $end
$var wire 1 -# inst11|Mux0_rtl_0|auto_generated|ram_block1a0_PORTADATAOUT_bus [0] $end
$var wire 1 .# inst11|Mux0_rtl_0|auto_generated|ram_block1a1_PORTADATAOUT_bus [0] $end
$var wire 1 /# inst11|Mux0_rtl_0|auto_generated|ram_block1a5_PORTADATAOUT_bus [0] $end
$var wire 1 0# inst11|Mux0_rtl_0|auto_generated|ram_block1a2_PORTADATAOUT_bus [0] $end
$var wire 1 1# inst11|Mux0_rtl_0|auto_generated|ram_block1a3_PORTADATAOUT_bus [0] $end
$var wire 1 2# inst11|Mux0_rtl_0|auto_generated|ram_block1a4_PORTADATAOUT_bus [0] $end
$var wire 1 3# inst11|Mux0_rtl_0|auto_generated|ram_block1a6_PORTADATAOUT_bus [0] $end
$var wire 1 4# inst11|Mux0_rtl_0|auto_generated|ram_block1a7_PORTADATAOUT_bus [0] $end
$upscope $end
$upscope $end
$enddefinitions $end
#0
$dumpvars
0!
0"
0#
0$
0,
0+
0*
0)
0(
0'
0&
0%
03
02
01
00
0/
0.
1-
0:
09
08
07
06
05
14
0;
0<
0D
0C
0B
0A
0@
0?
0>
0=
0K
0J
0I
0H
0G
0F
1E
0R
0Q
0P
0O
0N
0M
1L
0S
xT
0U
1V
xW
1X
1Y
1Z
0[
0\
0]
0^
0_
0`
0a
0b
0c
0d
0e
0f
0g
0h
0i
0j
0k
0l
0m
1n
0o
0p
0q
0r
0s
0t
1u
0v
0w
0x
0y
0z
0{
1|
0}
0~
0!!
0"!
0#!
0$!
1%!
0&!
0'!
0(!
0)!
0*!
0+!
0,!
0-!
0.!
0/!
00!
01!
02!
03!
04!
15!
06!
07!
08!
19!
0:!
0;!
0<!
0=!
0>!
0?!
0@!
0A!
0B!
0C!
0D!
0E!
0F!
0G!
0H!
0I!
0J!
0K!
0L!
0M!
0N!
0O!
0P!
0Q!
0R!
0S!
0T!
0U!
0V!
0W!
0X!
0Y!
0Z!
0[!
0\!
0]!
0^!
0_!
0`!
0a!
0b!
0c!
0d!
0e!
0f!
0g!
0h!
0i!
0j!
0k!
0l!
0m!
1n!
0o!
0p!
0q!
1r!
1s!
1t!
0u!
0v!
1w!
0x!
1y!
0z!
0{!
0|!
0}!
0~!
1!"
0""
0#"
0$"
0%"
1&"
0'"
0("
0)"
0*"
0+"
0,"
0-"
0."
0/"
00"
01"
02"
03"
04"
05"
06"
07"
08"
09"
0:"
0;"
0<"
0="
0>"
0?"
1@"
0A"
1B"
0C"
0D"
0E"
0F"
0G"
0H"
0I"
0J"
0K"
0L"
0M"
0N"
0O"
0P"
0Q"
0R"
0S"
0T"
0U"
0V"
0W"
0X"
0Y"
0Z"
0["
0\"
0]"
0^"
0_"
0`"
0a"
0b"
0c"
0d"
0e"
0f"
0g"
0h"
0i"
0j"
0k"
0l"
0m"
0n"
1o"
0p"
1q"
1r"
0s"
0t"
0u"
1v"
0w"
1x"
1y"
0z"
0{"
0|"
1}"
0~"
1!#
1"#
0##
0$#
0%#
1&#
0'#
1(#
1)#
0*#
0+#
0,#
0-#
0.#
0/#
00#
01#
02#
03#
04#
$end
#2000
1!
1,!
0T
1/!
1""
11!
1G"
0@"
1#"
0!"
1z!
0B"
1$"
1)"
#2001
13#
1L"
#4000
0!
0,!
1T
0/!
#6000
1!
1,!
0T
1/!
1H"
0""
1{!
1'"
1N"
0G"
0#"
1!"
1|!
0)#
0(#
1h"
1("
0&"
1%"
1d
1D
1,#
1'#
1b!
0$"
1(!
1'!
1+!
1&!
1O
1N
1R
1M
1m!
15"
0)"
0("
0n!
#8000
0!
0,!
1T
0/!
#10000
1!
1,!
0T
1/!
1M"
0H"
1""
13!
0!"
0|!
0z!
1:!
16!
1C!
1=!
09!
05!
0t!
1F"
0s!
1A"
0y!
1t!
1B"
06!
1y!
16!
#12000
0!
0,!
1T
0/!
#14000
1!
1,!
0T
1/!
1i"
0""
0{!
17!
1G"
1#"
1!"
0:!
0B"
0t!
1>!
1$"
1t!
0>!
0y!
05"
1)"
1("
1y!
06!
16!
#16000
0!
0,!
1T
0/!
#18000
1!
1,!
0T
1/!
1H"
1""
1*"
0'"
0G"
1@"
0#"
0!"
1z!
1u!
1)#
1(#
1c"
0h"
1&"
0%"
1c
0d
1C
0D
0,#
1*#
0&#
1B"
0$"
1>"
0(!
0'!
0+!
1)!
0%!
0O
0N
0R
1P
0L
15"
0)"
0("
0c"
1O"
#18001
1-#
03#
1j"
0L"
1l"
0N"
1?"
1;"
1j!
0O"
05"
0b!
1k!
0m!
1m"
1l!
1n!
0n!
#20000
0!
0,!
1T
0/!
#22000
1!
1,!
0T
1/!
1k"
0i"
0M"
0H"
1C"
0""
1{!
1G"
0@"
1!"
0u!
0B"
0>"
1c"
0?"
#24000
0!
0,!
1T
0/!
#26000
1!
1,!
0T
1/!
1H"
1""
0G"
0!"
0z!
1D!
1:!
06!
0t!
1>!
0y!
#26001
0-#
12#
1/#
0j"
1`"
1V"
0l"
1b"
1X"
0m"
0;"
0l!
0j!
1("
1I!
1/"
1S!
0k!
1m!
#28000
0!
0,!
1T
0/!
#30000
1!
1,!
0T
1/!
0k"
1a"
1W"
0H"
0""
0{!
07!
1T!
1J!
1@"
1!"
0D!
0:!
1B"
1t!
0>!
0y"
1Z!
1W!
1Q!
1K!
1H!
1G!
1i
1k
1)
1+
0v"
0S!
0I!
1y!
1[!
1L!
1x
0u
17
04
0m!
1\!
1N!
1m!
#32000
0!
0,!
1T
0/!
#34000
1!
1,!
0T
1/!
1d"
0C"
1""
1G"
0@"
1#"
0!"
1z!
0B"
1$"
0/"
1)"
#36000
0!
0,!
1T
0/!
#38000
1!
1,!
0T
1/!
1H"
0""
1{!
1'"
0G"
0#"
1!"
1|!
0(#
1h"
1+"
0("
0&"
1%"
1d
1D
0*#
0$"
1,"
1'!
0)!
1N
0P
1/"
0,"
0)"
1("
#38001
02#
0/#
13#
14#
0`"
0V"
1L"
1D"
0b"
0X"
1N"
1I"
0("
0K!
1I!
0/"
0Z!
0W!
1S!
15"
1b!
18"
1g!
0L!
0[!
0N!
0\!
#40000
0!
0,!
1T
0/!
#42000
1!
1,!
0T
1/!
0a"
0W"
1M"
0H"
1E"
1""
12!
0!"
0|!
0z!
1:!
16!
0C!
0=!
18!
15!
1B"
1A!
1>!
1<!
0F"
1s!
0A"
1j!
1f!
1e!
1a!
1X!
1R!
1M!
1L!
0H!
1B!
0t!
0B"
1k!
1[!
0S!
1N!
0I!
1E!
0y!
1m"
1l!
1\!
06!
#44000
0!
0,!
1T
0/!
#46000
1!
1,!
0T
1/!
0""
0{!
1n"
1h!
1c!
1]!
0T!
1O!
0J!
1?!
1@"
1!"
0:!
0r"
0j!
1i!
0e!
1d!
1`!
0X!
1y"
0x"
0Q!
0L!
1H!
0G!
0B!
1e
1[
1f
1g
1h
0i
1j
0k
1l
1%
1<
1&
1'
1(
0)
1*
0+
1,
1t"
1s"
0o"
1{"
1B"
1t!
0A!
0>!
0<!
0k!
0g!
0b!
0[!
1S!
0N!
1I!
0E!
1q
0x
1w
1s
1r
0n
1z
10
07
16
12
11
0-
19
1y!
1k!
1j!
0f!
0a!
1X!
0R!
0M!
1L!
0H!
1B!
0m"
0l!
0\!
1m"
1l!
0k!
1g!
1[!
0S!
1N!
0I!
1E!
0m"
1\!
#48000
0!
0,!
1T
0/!
#50000
1!
1,!
0T
1/!
1i"
1""
1G"
0@"
1#"
0!"
1z!
0B"
1$"
08"
05"
1,"
1)"
#52000
0!
0,!
1T
0/!
#54000
1!
1,!
0T
1/!
1H"
0""
1{!
1-"
0*"
0'"
0G"
0#"
1!"
1|!
0)#
1^"
0c"
0h"
1&"
0%"
1b
0c
0d
1B
0C
0D
1,#
0'#
0$"
1(!
1+!
0&!
1O
1R
0M
18"
15"
0,"
0)"
#54001
1.#
04#
1Q"
0D"
1S"
0I"
12"
1_!
1^!
0X!
08"
0g!
0`!
0[!
1b!
0\!
#56000
0!
0,!
1T
0/!
#58000
1!
1,!
0T
1/!
1R"
0H"
0E"
1""
14!
02!
0!"
0|!
0z!
1:!
16!
08!
05!
1=!
0t!
0s!
1A"
1F"
0y!
1t!
1B"
06!
1y!
16!
#60000
0!
0,!
1T
0/!
#62000
1!
1,!
0T
1/!
0i"
0d"
1_"
0""
0{!
17!
1G"
1#"
1!"
0:!
0B"
0t!
1>!
1$"
1t!
0>!
0y!
05"
02"
1,"
1)"
1y!
06!
16!
#64000
0!
0,!
1T
0/!
#66000
1!
1,!
0T
1/!
1H"
1""
1'"
0G"
1@"
0#"
0!"
1z!
1u!
1)#
1h"
1("
0&"
1%"
1d
1D
0,#
1+#
1B"
0$"
1>"
0(!
0+!
1*!
0O
0R
1Q
15"
12"
0,"
0)"
0("
0h"
0^"
1T"
1O"
#66001
1-#
11#
0.#
03#
1j"
1e"
0Q"
0L"
1l"
1g"
0S"
0N"
1?"
1;"
0j!
1h"
1F!
0B!
0T"
02"
0_!
0^!
1X!
0O"
05"
0b!
1k!
1H!
1G!
0E!
1`!
0d!
1[!
0m!
1m"
1I!
1b!
0i!
1e!
1\!
1m!
0k!
1g!
0m"
0l!
#68000
0!
0,!
1T
0/!
#70000
1!
1,!
0T
1/!
1k"
1i"
1f"
0_"
0R"
0M"
0H"
1C"
0""
1{!
1G"
0@"
1!"
0u!
0B"
0>"
1^"
0?"
#72000
0!
0,!
1T
0/!
#74000
1!
1,!
0T
1/!
1H"
1""
0G"
0!"
0z!
1:!
06!
0t!
1>!
0y!
#74001
0-#
0j"
0l"
0;"
1j!
1k!
1m"
1l!
#76000
0!
0,!
1T
0/!
#78000
1!
1,!
0T
1/!
0k"
0H"
0""
0{!
07!
1J!
0?!
1@"
1!"
0:!
1B"
1t!
0>!
1x"
0H!
0G!
0F!
1B!
1k
0l
1+
0,
1y!
0I!
1H!
1G!
1E!
0w
06
1I!
#80000
0!
0,!
1T
0/!
#82000
1!
1,!
0T
1/!
1_"
0C"
1""
1G"
0@"
1#"
0!"
1z!
0B"
1$"
1,"
1)"
1("
#84000
0!
0,!
1T
0/!
#86000
1!
1,!
0T
1/!
1H"
0""
1{!
1*"
0'"
0G"
0#"
1!"
1|!
1(#
1c"
0h"
1&"
0%"
1c
0d
1C
0D
0$"
0'!
0N
0,"
0)"
0("
#86001
01#
1.#
13#
0e"
1Q"
1L"
0g"
1S"
1N"
0B!
12"
1_!
1^!
0X!
15"
1d!
0b!
0E!
0`!
0[!
1i!
0e!
1b!
0\!
0k!
0g!
0m"
0l!
#88000
0!
0,!
1T
0/!
#90000
1!
1,!
0T
1/!
0f"
1R"
1M"
0H"
1""
0!"
0|!
0z!
1:!
16!
1B"
#92000
0!
0,!
1T
0/!
#94000
1!
1,!
0T
1/!
0i"
1d"
0""
0{!
17!
1G"
1#"
1!"
0:!
0B"
0t!
1>!
1$"
1t!
0>!
0y!
05"
02"
1,"
1)"
1("
1y!
06!
16!
#96000
0!
0,!
1T
0/!
#98000
1!
1,!
0T
1/!
1H"
1""
1'"
0G"
1@"
0#"
0!"
1z!
1u!
0)#
0(#
1h"
1."
0+"
0("
0&"
1%"
1d
1D
0+#
1'#
1&#
1B"
0$"
1>"
1/"
0,"
1(!
1'!
0*!
1&!
1%!
1O
1N
0Q
1M
1L
15"
12"
0/"
0)"
0h"
0c"
0^"
1T"
1O"
#98001
1-#
12#
0.#
03#
1j"
1`"
0Q"
0L"
1l"
1b"
0S"
0N"
1?"
1;"
0j!
1c"
1("
1K!
0I!
0T"
02"
0_!
0^!
1X!
0O"
05"
0b!
1k!
1Y!
1V!
1P!
0L!
1`!
0d!
1[!
0m!
1m"
1l!
1Q!
0N!
1b!
0i!
1e!
1\!
1S!
1m!
0k!
1g!
0m"
0l!
#100000
0!
0,!
1T
0/!
#102000
1!
1,!
0T
1/!
1k"
1a"
0_"
0R"
0M"
0H"
1C"
0""
1{!
1G"
0@"
1!"
0u!
0B"
0>"
1h"
1^"
0?"
#104000
0!
0,!
1T
0/!
#106000
1!
1,!
0T
1/!
1H"
1""
0G"
0!"
0z!
1:!
06!
0t!
1>!
0y!
#106001
0-#
1/#
0j"
1V"
0l"
1X"
0;"
1j!
1/"
1Z!
1W!
0S!
1k!
0[!
1_!
1^!
1m"
1l!
0\!
0`!
1d!
0b!
1i!
0e!
0k!
0g!
0m"
0l!
0m!
1n!
#108000
0!
0,!
1T
0/!
#110000
1!
1,!
0T
1/!
0k"
1W"
0H"
0""
0{!
07!
0n"
1o!
0h!
0c!
0]!
0O!
0J!
1@"
1!"
0:!
1B"
1t!
0>!
1r"
0j!
0i!
1e!
0d!
1`!
0_!
0^!
0X!
0Y!
0V!
0P!
1L!
0K!
0H!
0G!
0e
0[
1\
0f
0g
0h
0j
0k
0%
0<
1S
0&
0'
0(
0*
0+
0t"
0s"
1o"
0{"
1v"
1y!
1g!
0e!
1b!
0`!
1[!
0Z!
0W!
0Q!
1N!
0L!
1I!
0q
0s
0r
1n
0z
1u
00
02
01
1-
09
14
1m!
0g!
0b!
1\!
0[!
1S!
0n!
0N!
0\!
#112000
0!
0,!
1T
0/!
#114000
1!
1,!
0T
1/!
1i"
1_"
0C"
1""
1G"
0@"
1#"
0!"
1z!
0B"
1$"
1)"
0("
#116000
0!
0,!
1T
0/!
#118000
1!
1,!
0T
1/!
1H"
0""
1{!
10"
0-"
0*"
0'"
0G"
0#"
1!"
1|!
1)#
1(#
1Y"
0^"
0c"
0h"
1&"
0%"
1a
0b
0c
0d
1A
0B
0C
0D
0'#
0&#
0$"
0(!
0'!
0&!
0%!
0O
0N
0M
0L
0)"
1("
#118001
1-#
02#
0/#
13#
1j"
0`"
0V"
1L"
1l"
0b"
0X"
1N"
1;"
1j!
0("
0I!
0/"
0S!
15"
1b!
1k!
1m"
1l!
#120000
0!
0,!
1T
0/!
#122000
1!
1,!
0T
1/!
1k"
0a"
0W"
1M"
0H"
1""
1}!
04!
0!"
0|!
0z!
1:!
16!
1p!
0=!
15!
1B"
0w!
0F"
0A"
1A"
0B"
1B"
#124000
0!
0,!
1T
0/!
#126000
1!
1,!
0T
1/!
0i"
0d"
0_"
1Z"
0""
0{!
17!
1!"
0:!
1F"
0B"
1G"
#128000
0!
0,!
1T
0/!
#130000
1!
1,!
0T
1/!
1H"
1""
0G"
0!"
1z!
1u!
1)"
0&"
1x!
0y!
0z!
06!
#130001
0-#
11#
10#
1/#
03#
0j"
1e"
1["
1V"
0L"
0l"
1g"
1]"
1X"
0N"
0;"
0j!
1%"
1B!
1,"
1N!
1/"
1S!
05"
0b!
0k!
1E!
0m"
#132000
0!
0,!
1T
0/!
#134000
1!
1,!
0T
1/!
0k"
1f"
1\"
1W"
0M"
0H"
0""
07!
1-"
1'"
1@"
1!"
0u!
1^"
1+"
1h"
1&"
1b
1d
1B
1D
1,#
1'#
1B"
0)"
0&"
0x!
1+!
1&!
1R
1M
1y!
#136000
0!
0,!
1T
0/!
#138000
1!
1,!
0T
1/!
1i"
1_"
1""
1G"
0@"
1#"
0!"
1z!
0B"
1$"
1)"
1("
#140000
0!
0,!
1T
0/!
#142000
1!
1,!
0T
1/!
1H"
0""
1{!
1*"
0'"
0G"
0#"
1!"
1|!
0F"
1c"
0h"
1&"
0%"
1c
0d
1C
0D
0,#
1+#
1*#
0'#
0$"
0+!
1*!
1)!
0&!
0R
1Q
1P
0M
0)"
0("
