simulation/qsim/Neander.msim.vcd
$comment
	File created using the following command:
		vcd file Neander.msim.vcd -direction
$end
$date
	Sat Jul 05 16:29:42 2025
$end
$version
	ModelSim Version 10.1d
$end
$timescale
	1ps
$end
$scope module Neander_vlg_vec_tst $end
$var reg 1 ! clk $end
$var reg 1 " reset $end
$var wire 1 # S [7] $end
$var wire 1 $ S [6] $end
$var wire 1 % S [5] $end
$var wire 1 & S [4] $end
$var wire 1 ' S [3] $end
$var wire 1 ( S [2] $end
$var wire 1 ) S [1] $end
$var wire 1 * S [0] $end
$var wire 1 + sampler $end
$scope module i1 $end
$var wire 1 , gnd $end
$var wire 1 - vcc $end
$var wire 1 . unknown $end
$var tri1 1 / devclrn $end
$var tri1 1 0 devpor $end
$var tri1 1 1 devoe $end
$var wire 1 2 S[7]~output_o $end
$var wire 1 3 S[6]~output_o $end
$var wire 1 4 S[5]~output_o $end
$var wire 1 5 S[4]~output_o $end
$var wire 1 6 S[3]~output_o $end
$var wire 1 7 S[2]~output_o $end
$var wire 1 8 S[1]~output_o $end
$var wire 1 9 S[0]~output_o $end
$var wire 1 : clk~input_o $end
$var wire 1 ; clk~inputclkctrl_outclk $end
$var wire 1 < inst7|inst10~0feeder_combout $end
$var wire 1 = reset~input_o $end
$var wire 1 > reset~inputclkctrl_outclk $end
$var wire 1 ? inst7|inst10~0_q $end
$var wire 1 @ inst7|inst14~1_q $end
$var wire 1 A inst1|inst|inst1|inst3~0_combout $end
$var wire 1 B inst7|inst16~1_q $end
$var wire 1 C inst7|inst~1_q $end
$var wire 1 D inst10|inst10|inst6~0_combout $end
$var wire 1 E inst7|inst8~1_q $end
$var wire 1 F inst10|inst11|inst6~0_combout $end
$var wire 1 G inst10|inst11|inst6~1_combout $end
$var wire 1 H inst1|inst1|inst4~5_combout $end
$var wire 1 I inst1|inst|inst|inst13~0_combout $end
$var wire 1 J inst1|inst1|inst4~2_combout $end
$var wire 1 K inst1|inst1|inst4~1_combout $end
$var wire 1 L inst12|inst1~combout $end
$var wire 1 M inst1|inst2|inst34~0_combout $end
$var wire 1 N inst1|inst2|inst36~combout $end
$var wire 1 O inst3|inst10~q $end
$var wire 1 P inst1|inst1|inst4~3_combout $end
$var wire 1 Q inst12|inst~combout $end
$var wire 1 R inst|inst8|inst3|inst2~9_combout $end
$var wire 1 S inst7|inst6~1_q $end
$var wire 1 T inst10|inst30~combout $end
$var wire 1 U inst10|inst19|inst6~0_combout $end
$var wire 1 V inst10|inst27~q $end
$var wire 1 W inst5|inst11|inst2~0_combout $end
$var wire 1 X inst1|inst2|inst7~0_combout $end
$var wire 1 Y inst1|inst2|inst50~combout $end
$var wire 1 Z inst1|inst2|inst7~combout $end
$var wire 1 [ inst5|inst12~q $end
$var wire 1 \ inst10|inst20|inst6~0_combout $end
$var wire 1 ] inst10|inst20|inst6~1_combout $end
$var wire 1 ^ inst10|inst33~q $end
$var wire 1 _ inst5|inst13|inst2~0_combout $end
$var wire 1 ` inst5|inst14~q $end
$var wire 1 a inst10|inst22|inst6~0_combout $end
$var wire 1 b inst10|inst22|inst6~1_combout $end
$var wire 1 c inst10|inst39~q $end
$var wire 1 d inst5|inst15|inst2~0_combout $end
$var wire 1 e inst5|inst16~q $end
$var wire 1 f inst11|Mux0_rtl_0|auto_generated|ram_block1a2 $end
$var wire 1 g inst7|inst6~4_combout $end
$var wire 1 h inst|inst8|inst2|inst2~1_combout $end
$var wire 1 i inst|inst8|inst|inst2~0_combout $end
$var wire 1 j inst|inst8|inst|inst2~1_combout $end
$var wire 1 k inst3|inst~q $end
$var wire 1 l inst11|Mux0_rtl_0|auto_generated|ram_block1a4 $end
$var wire 1 m inst7|inst4~1_q $end
$var wire 1 n inst7|inst4~4_combout $end
$var wire 1 o inst|inst8|inst1|inst2~0_combout $end
$var wire 1 p inst|inst8|inst1|inst2~2_combout $end
$var wire 1 q inst|inst8|inst1|inst2~1_combout $end
$var wire 1 r inst|inst8|inst1|inst2~3_combout $end
$var wire 1 s inst3|inst4~q $end
$var wire 1 t inst|inst|inst1|inst4~0_combout $end
$var wire 1 u inst|inst8|inst2|inst2~0_combout $end
$var wire 1 v inst|inst8|inst2|inst2~2_combout $end
$var wire 1 w inst3|inst6~q $end
$var wire 1 x inst|inst|inst2|inst4~0_combout $end
$var wire 1 y inst|inst8|inst3|inst2~11_combout $end
$var wire 1 z inst|inst8|inst3|inst2~8_combout $end
$var wire 1 { inst|inst8|inst3|inst2~10_combout $end
$var wire 1 | inst3|inst8~q $end
$var wire 1 } inst|inst|inst4|inst4~0_combout $end
$var wire 1 ~ inst|inst|inst4|inst4~1_combout $end
$var wire 1 !! inst|inst8|inst4|inst2~0_combout $end
$var wire 1 "! inst|inst8|inst4|inst2~1_combout $end
$var wire 1 #! inst|inst8|inst4|inst2~2_combout $end
$var wire 1 $! inst|inst|inst5|inst4~0_combout $end
$var wire 1 %! inst|inst8|inst5|inst2~1_combout $end
$var wire 1 &! inst|inst8|inst5|inst2~3_combout $end
$var wire 1 '! inst3|inst12~q $end
$var wire 1 (! inst|inst8|inst5|inst2~0_combout $end
$var wire 1 )! inst|inst|inst5|inst4~1_combout $end
$var wire 1 *! inst|inst8|inst5|inst2~2_combout $end
$var wire 1 +! inst|inst9~0_combout $end
$var wire 1 ,! inst|inst9~1_combout $end
$var wire 1 -! inst3|inst14~q $end
$var wire 1 .! inst|inst8|inst6|inst2~1_combout $end
$var wire 1 /! inst|inst|inst6|inst4~0_combout $end
$var wire 1 0! inst|inst8|inst6|inst2~0_combout $end
$var wire 1 1! inst|inst8|inst6|inst2~2_combout $end
$var wire 1 2! inst|inst9~combout $end
$var wire 1 3! inst9|inst4~q $end
$var wire 1 4! inst1|inst1|inst4~6_combout $end
$var wire 1 5! inst1|inst2|inst50~2_combout $end
$var wire 1 6! inst10|inst8|inst6~3_combout $end
$var wire 1 7! inst10|inst5~q $end
$var wire 1 8! inst10|inst24~combout $end
$var wire 1 9! inst10|inst14|inst6~0_combout $end
$var wire 1 :! inst10|inst21~q $end
$var wire 1 ;! inst5|inst9|inst2~0_combout $end
$var wire 1 <! inst5|inst10~q $end
$var wire 1 =! inst11|Mux0_rtl_0|auto_generated|ram_block1a5 $end
$var wire 1 >! inst7|inst8~4_combout $end
$var wire 1 ?! inst5|inst7|inst2~0_combout $end
$var wire 1 @! inst5|inst8~q $end
$var wire 1 A! inst11|Mux0_rtl_0|auto_generated|ram_block1a6 $end
$var wire 1 B! inst7|inst12~1_q $end
$var wire 1 C! inst7|inst12~4_combout $end
$var wire 1 D! inst1|inst|inst1|inst3~1_combout $end
$var wire 1 E! inst8|inst12~q $end
$var wire 1 F! inst1|inst2|inst50~3_combout $end
$var wire 1 G! inst1|inst2|inst15~0_combout $end
$var wire 1 H! inst1|inst2|inst43~0_combout $end
$var wire 1 I! inst1|inst2|inst15~1_combout $end
$var wire 1 J! inst10|inst10|inst6~1_combout $end
$var wire 1 K! inst10|inst2~q $end
$var wire 1 L! inst5|inst5|inst2~0_combout $end
$var wire 1 M! inst5|inst6~q $end
$var wire 1 N! inst11|Mux0_rtl_0|auto_generated|ram_block1a3 $end
$var wire 1 O! inst7|inst~4_combout $end
$var wire 1 P! inst10|inst~0_combout $end
$var wire 1 Q! inst10|inst4|inst6~0_combout $end
$var wire 1 R! inst10|inst~q $end
$var wire 1 S! inst10|inst8|inst6~2_combout $end
$var wire 1 T! inst10|inst1~q $end
$var wire 1 U! inst5|inst3|inst2~0_combout $end
$var wire 1 V! inst5|inst4~q $end
$var wire 1 W! inst11|Mux0_rtl_0|auto_generated|ram_block1a0~portadataout $end
$var wire 1 X! inst7|inst16~4_combout $end
$var wire 1 Y! inst8|inst16~q $end
$var wire 1 Z! inst1|inst1|inst4~7_combout $end
$var wire 1 [! inst1|inst2|inst16~0_combout $end
$var wire 1 \! inst5|inst2|inst2~0_combout $end
$var wire 1 ]! inst5|inst~q $end
$var wire 1 ^! inst11|Mux0_rtl_0|auto_generated|ram_block1a7 $end
$var wire 1 _! inst7|inst14~4_combout $end
$var wire 1 `! inst8|inst14~q $end
$var wire 1 a! inst1|inst1|inst4~9_combout $end
$var wire 1 b! inst1|inst|inst|inst96|inst~combout $end
$var wire 1 c! inst1|inst|inst|inst~q $end
$var wire 1 d! inst1|inst|inst|inst14|inst~combout $end
$var wire 1 e! inst1|inst|inst|inst2~q $end
$var wire 1 f! inst1|inst2|inst22~0_combout $end
$var wire 1 g! inst1|inst2|inst22~1_combout $end
$var wire 1 h! inst7|inst10~3_q $end
$var wire 1 i! inst7|inst10~1_q $end
$var wire 1 j! inst11|Mux0_rtl_0|auto_generated|ram_block1a1 $end
$var wire 1 k! inst7|inst10~4_combout $end
$var wire 1 l! inst8|inst10~q $end
$var wire 1 m! inst1|inst1|inst4~4_combout $end
$var wire 1 n! inst1|inst2|inst42~0_combout $end
$var wire 1 o! inst1|inst1|inst4~8_combout $end
$var wire 1 p! inst1|inst2|inst43~1_combout $end
$var wire 1 q! inst1|inst|inst|inst14|inst~2_combout $end
$var wire 1 r! inst1|inst|inst|inst14|inst~3_combout $end
$var wire 1 s! inst1|inst|inst|inst8|inst~combout $end
$var wire 1 t! inst1|inst|inst|inst1~q $end
$var wire 1 u! inst1|inst1|inst4~0_combout $end
$var wire 1 v! inst1|inst2|inst24~combout $end
$var wire 1 w! inst|inst8|inst7|inst2~2_combout $end
$var wire 1 x! inst|inst8|inst7|inst2~0_combout $end
$var wire 1 y! inst|inst8|inst7|inst2~1_combout $end
$var wire 1 z! inst|inst8|inst7|inst2~3_combout $end
$var wire 1 {! inst3|inst16~q $end
$var wire 1 |! inst11|Mux0_rtl_0|auto_generated|ram_block1a0_PORTADATAOUT_bus [17] $end
$var wire 1 }! inst11|Mux0_rtl_0|auto_generated|ram_block1a0_PORTADATAOUT_bus [16] $end
$var wire 1 ~! inst11|Mux0_rtl_0|auto_generated|ram_block1a0_PORTADATAOUT_bus [15] $end
$var wire 1 !" inst11|Mux0_rtl_0|auto_generated|ram_block1a0_PORTADATAOUT_bus [14] $end
$var wire 1 "" inst11|Mux0_rtl_0|auto_generated|ram_block1a0_PORTADATAOUT_bus [13] $end
$var wire 1 #" inst11|Mux0_rtl_0|auto_generated|ram_block1a0_PORTADATAOUT_bus [12] $end
$var wire 1 $" inst11|Mux0_rtl_0|auto_generated|ram_block1a0_PORTADATAOUT_bus [11] $end
$var wire 1 %" inst11|Mux0_rtl_0|auto_generated|ram_block1a0_PORTADATAOUT_bus [10] $end
$var wire 1 &" inst11|Mux0_rtl_0|auto_generated|ram_block1a0_PORTADATAOUT_bus [9] $end
$var wire 1 '" inst11|Mux0_rtl_0|auto_generated|ram_block1a0_PORTADATAOUT_bus [8] $end
$var wire 1 (" inst11|Mux0_rtl_0|auto_generated|ram_block1a0_PORTADATAOUT_bus [7] $end
$var wire 1 )" inst11|Mux0_rtl_0|auto_generated|ram_block1a0_PORTADATAOUT_bus [6] $end
$var wire 1 *" inst11|Mux0_rtl_0|auto_generated|ram_block1a0_PORTADATAOUT_bus [5] $end
$var wire 1 +" inst11|Mux0_rtl_0|auto_generated|ram_block1a0_PORTADATAOUT_bus [4] $end
$var wire 1 ," inst11|Mux0_rtl_0|auto_generated|ram_block1a0_PORTADATAOUT_bus [3] $end
$var wire 1 -" inst11|Mux0_rtl_0|auto_generated|ram_block1a0_PORTADATAOUT_bus [2] $end
$var wire 1 ." inst11|Mux0_rtl_0|auto_generated|ram_block1a0_PORTADATAOUT_bus [1] $end
$var wire 1 /" inst11|Mux0_rtl_0|auto_generated|ram_block1a0_PORTADATAOUT_bus [0] $end
$upscope $end
$upscope $end
$enddefinitions $end
#0
$dumpvars
0!
0"
0*
0)
0(
0'
0&
0%
0$
0#
x+
0,
1-
x.
1/
10
11
02
03
04
05
06
07
08
09
0:
0;
1<
0=
0>
0?
0@
0A
0B
0C
0D
0E
0F
0G
0H
0I
0J
0K
0L
0M
0N
0O
0P
0Q
0R
0S
0T
0U
0V
0W
1X
0Y
1Z
0[
0\
0]
0^
0_
0`
0a
0b
0c
0d
0e
0f
0g
0h
0i
0j
0k
0l
0m
0n
0o
0p
0q
0r
0s
0t
0u
0v
0w
0x
0y
0z
0{
0|
0}
0~
0!!
0"!
0#!
0$!
0%!
0&!
0'!
0(!
0)!
0*!
0+!
0,!
0-!
0.!
0/!
00!
01!
12!
03!
04!
15!
06!
07!
08!
09!
0:!
0;!
0<!
0=!
0>!
0?!
0@!
0A!
0B!
0C!
0D!
0E!
1F!
0G!
1H!
0I!
0J!
0K!
0L!
0M!
0N!
0O!
0P!
1Q!
0R!
0S!
0T!
0U!
0V!
0W!
0X!
0Y!
0Z!
0[!
0\!
0]!
0^!
0_!
0`!
0a!
1b!
0c!
0d!
0e!
0f!
0g!
0h!
0i!
0j!
0k!
0l!
0m!
0n!
1o!
1p!
1q!
1r!
0s!
0t!
0u!
0v!
0w!
0x!
0y!
0z!
0{!
0/"
0."
0-"
0,"
0+"
0*"
0)"
0("
0'"
0&"
0%"
0$"
0#"
0""
0!"
0~!
0}!
0|!
$end
#10000
1!
1:
1;
0+
1c!
1?
1s!
1g!
0b!
1G!
0X
1I!
0Z
16!
#10001
1)"
1A!
#20000
0!
0:
0;
1+
#30000
1!
1:
1;
0+
1t!
1h!
0c!
1R!
0g!
0G!
1D!
1C!
1b!
1\!
1S!
0Q!
1P!
0I!
1(!
0S!
06!
1U
1*!
1+!
1&!
02!
#40000
0!
0:
0;
1+
#50000
1!
1:
1;
0+
0h!
1c!
1E!
1B!
0s!
1d!
0b!
0D!
1I
1u!
0o!
0F!
1M
0q!
0p!
1Y
1f!
0r!
1q!
1Z
0d!
1r!
1d!
#60000
0!
0:
0;
1+
#70000
1!
1:
1;
0+
0t!
1e!
0c!
1]!
1g!
1G!
0I
0q!
0Z
1N
1b!
1I!
1q!
0N
0r!
1S!
16!
0U
1r!
0d!
1d!
#80000
0!
0:
0;
1+
#90000
1!
1:
1;
0+
1h!
1c!
1T!
0R!
1s!
0g!
0b!
0G!
1X
1A
1U!
0\!
1Q!
0P!
0I!
1Z
1[!
0S!
06!
1U
0U!
1W
#90001
1/"
0)"
1W!
0A!
1X!
0C!
1z!
1d
1b
0(!
0W
0U
0*!
0+!
0&!
#100000
0!
0:
0;
1+
#110000
1!
1:
1;
0+
1t!
0h!
0c!
0]!
0B!
1e
1B
1g!
0X
0A
1b!
0Z
0[!
1U!
0d
#120000
0!
0:
0;
1+
#130000
1!
1:
1;
0+
1h!
1c!
1v!
0s!
0g!
0d!
0b!
1I
0q!
1N
0r!
#130001
0/"
1+"
1*"
0W!
1l
1=!
0X!
1n
1>!
0z!
0b
1S!
1r
1{
1G
12!
1,!
02!
#140000
0!
0:
0;
1+
#150000
1!
1:
1;
0+
0t!
0h!
0e!
0c!
1m
1E
0B
1|
1s
0v!
1X
0I
1q!
1Z
0N
1b!
1~
1z
1x
1t
1q
1p
16
18
1'
1)
0{
0r
1r!
1!!
1u
0,!
1#!
1v
12!
1+!
1,!
02!
#160000
0!
0:
0;
1+
#170000
1!
1:
1;
0+
1c!
1V!
0e
1s!
1g!
0b!
1G!
0X
1I!
0Z
16!
0G
#180000
0!
0:
0;
1+
#190000
1!
1:
1;
0+
1t!
1h!
0c!
1R!
0g!
0G!
1D!
1b!
1\!
0S!
0Q!
1P!
1D
0I!
1J!
1S!
0J!
06!
1G
#190001
0+"
0*"
1)"
1("
0l
0=!
1A!
1^!
0n
0>!
1C!
1_!
0S!
0x
0t
1r
0~
1{
0G
1(!
1U
11!
1]
0u
0!!
1*!
0v
0#!
1&!
#200000
0!
0:
0;
1+
#210000
1!
1:
1;
0+
0h!
1c!
1`!
1B!
0m
0E
1@
0s!
1d!
0b!
0D!
1I
0u!
1F!
0M
1J
1Z
1Q
1N
1L
0Y
0f!
1p!
1w!
10!
1.!
1%!
1"!
1!!
1u
0p
1i
1h
1R
0Z
0q!
1z!
1#!
1v
0r
1j
0{
0r!
0d!
#220000
0!
0:
0;
1+
#230000
1!
1:
1;
0+
0t!
0c!
1{!
1-!
1'!
0|
1w
0s
1k
1O
1X
0I
1b!
1y!
1x!
00!
1/!
0(!
0z
0u
0q
1p
0i
0!!
12
13
14
06
17
08
19
15
1#
1$
1%
0'
1(
0)
1*
1&
1Z
1q!
0Q
0N
0L
0z!
01!
0*!
1{
0v
1r
0j
0#!
1r!
0y!
0w!
0.!
0%!
0"!
1!!
1u
0p
1i
0h
0R
0+!
0&!
11!
1#!
1v
0r
1j
0{
1+!
#240000
0!
0:
0;
1+
#250000
1!
1:
1;
0+
1c!
1]!
1s!
1g!
0b!
1G!
0X
1I!
0Z
1J!
16!
0]
0U
#260000
0!
0:
0;
1+
#270000
1!
1:
1;
0+
1t!
1h!
0c!
0T!
0R!
1K!
0g!
0G!
1D!
1b!
0U!
0\!
1Q!
0P!
1L!
0I!
0J!
06!
1]
1U
#270001
1."
0("
1j!
0^!
1k!
0_!
19!
1$!
0#!
01!
0]
1*!
0+!
1+!
1&!
#280000
0!
0:
0;
1+
#290000
1!
1:
1;
0+
1l!
1i!
0h!
1c!
0`!
0@
0F!
0J
0s!
1d!
0b!
0D!
1I
1M
0q!
1Y
0p!
1f!
0r!
1Z
1q!
0d!
1r!
1d!
#300000
0!
0:
0;
1+
#310000
1!
1:
1;
0+
0t!
1e!
0c!
0]!
0V!
1M!
1g!
1G!
0I
0q!
0Z
1N
1b!
1I!
1q!
0N
0r!
1J!
09!
16!
0U
1r!
0d!
1d!
#320000
0!
0:
0;
1+
#330000
1!
1:
1;
0+
1h!
1c!
1R!
1s!
0g!
0b!
0G!
1X
1A
1\!
1S!
0Q!
1P!
0I!
1Z
1[!
0S!
0J!
19!
06!
1U
0\!
0L!
1;!
1W
#330001
1/"
0."
1,"
0)"
1W!
0j!
1N!
0A!
1X!
0k!
1O!
0C!
1z!
1d
1b
0;!
09!
0$!
1#!
1\!
1o
0i
1(!
0W
0U
0/!
1q
1p
0j
0x!
10!
1r
1y!
11!
0z!
#340000
0!
0:
0;
1+
#350000
1!
1:
1;
0+
1t!
0i!
0h!
0c!
1]!
0M!
0B!
1e
1C
1B
1g!
0X
0A
1b!
0Z
0[!
1L!
0d
#360000
0!
0:
0;
1+
#370000
1!
1:
1;
0+
1h!
1c!
0s!
0g!
0d!
0b!
1I
0q!
1N
0r!
#370001
0/"
0W!
0X!
1z!
0b
#380000
0!
0:
0;
1+
#390000
1!
1:
1;
0+
0t!
0h!
0e!
0c!
0B
1s
0k
1X
0I
1q!
1Z
0N
1b!
0q
0p
0o
1i
18
09
1)
0*
1r!
0r
1q
1p
1j
1r
#400000
0!
0:
0;
1+
#410000
1!
1:
1;
0+
1c!
1M!
0e
1s!
1g!
0b!
1G!
0X
1I!
0Z
1S!
1J!
16!
#420000
0!
0:
0;
1+
#430000
1!
1:
1;
0+
1t!
1h!
0c!
1T!
0R!
0g!
0G!
1D!
1b!
1U!
0\!
1Q!
0P!
0I!
0S!
0J!
06!
#430001
1."
0,"
1)"
1j!
0N!
1A!
1k!
0O!
1C!
19!
1$!
0#!
0i
1/!
0(!
1U
0j
1x!
00!
0y!
01!
0z!
#440000
0!
0:
0;
1+
#450000
1!
1:
1;
0+
1i!
0h!
1c!
1B!
0C
0s!
1d!
0b!
0D!
1I
1Z
#460000
0!
0:
0;
1+
#470000
1!
1:
1;
0+
0t!
1e!
0c!
0]!
1V!
1g!
1G!
0I
0q!
0Z
1N
1b!
1I!
1q!
0N
0r!
1S!
1J!
09!
16!
0U
1r!
0d!
1d!
#480000
0!
0:
0;
1+
#490000
1!
1:
1;
0+
1h!
1c!
1R!
1s!
0g!
0b!
0G!
1X
1A
1\!
0S!
0Q!
1P!
1F
0D
0I!
1Z
1[!
1G
0J!
19!
06!
1U
0G
0\!
0U!
0L!
1;!
1W
#490001
1/"
0."
1+"
0)"
1W!
0j!
1l
0A!
1X!
0k!
1n
0C!
1z!
1d
1b
0;!
09!
0$!
1#!
1U!
1S!
1x
1t
0r
1(!
0W
0U
0/!
1}
1y
0u
0x!
10!
1z
0v
1y!
11!
1{
0,!
0z!
1,!
#500000
0!
0:
0;
1+
#510000
1!
1:
1;
0+
1t!
0i!
0h!
0c!
0M!
0B!
1m
1e
1B
1g!
0X
0A
1b!
0Z
0[!
1\!
1L!
0d
#520000
0!
0:
0;
1+
#530000
1!
1:
1;
0+
1h!
1c!
0s!
0g!
0d!
0b!
1I
0q!
1N
0r!
#530001
0/"
1*"
0W!
1=!
0X!
1>!
1z!
0b
1~
0{
1G
1)!
0!!
0,!
1/!
0*!
0#!
1x!
00!
0+!
0&!
0y!
01!
0z!
12!
#540000
0!
0:
0;
1+
#550000
1!
1:
1;
0+
0t!
0h!
0e!
0c!
13!
1E
0B
0{!
0-!
0'!
0w
0s
0O
1X
0I
1q!
1Z
0N
1b!
1y!
0x!
10!
0/!
0(!
0}
0y
1u
0x
0t
0q
0p
0)!
1!!
02
03
04
07
08
05
0#
0$
0%
0(
0)
0&
1r!
1z!
0y!
11!
00!
0~
0z
1v
0u
1r
1#!
02!
0z!
01!
0!!
1{
1,!
0v
1+!
0#!
0+!
#560000
0!
0:
0;
1+
#570000
1!
1:
1;
0+
1c!
1]!
1M!
0e
1s!
1g!
0b!
1G!
0X
1I!
0Z
0S!
16!
#580000
0!
0:
0;
1+
#590000
1!
1:
1;
0+
1t!
1h!
0c!
0T!
0R!
0K!
17!
0g!
0G!
1D!
1b!
0U!
0\!
1Q!
0P!
0L!
1?!
0I!
1S!
06!
#590001
1/"
0+"
0*"
1)"
1W!
0l
0=!
1A!
1X!
0n
0>!
1C!
1z!
1b
0S!
0r
0{
0G
1(!
1U
0,!
1*!
1+!
1&!
#600000
0!
0:
0;
1+
#610000
1!
1:
1;
0+
0l!
0h!
1c!
1Y!
1B!
0m
0E
1B
1F!
14!
0s!
1d!
0b!
0D!
1I
0M
0Y
05!
1Z
0f!
0Z
1Y
1Z
#620000
0!
0:
0;
1+
#630000
1!
1:
1;
0+
0t!
1e!
0c!
0]!
0V!
0M!
1@!
1f!
0I
0Z
1b!
1g!
#640000
0!
0:
0;
1+
#650000
1!
1:
1;
0+
1h!
1c!
1s!
0g!
0b!
1A
1n!
0Q!
16!
0r!
0s!
0d!
#650001
0/"
1-"
1,"
1*"
0)"
0W!
1f
1N!
1=!
0A!
0X!
1g
1O!
1>!
0C!
0z!
0b
1J!
1v
1P!
1i
1{
1G
0(!
0U
1,!
1j
0*!
0+!
0&!
#660000
0!
0:
0;
1+
#670000
1!
1:
1;
0+
0h!
0e!
0c!
1R!
1K!
0B!
1S
1E
1C
0B
1X
0A
1b!
1\!
1Q!
1D
1L!
1Z
0n!
0Q!
06!
1r!
#680000
0!
0:
0;
1+
#690000
1!
1:
1;
0+
1c!
1]!
1M!
1s!
1g!
0b!
1G!
0X
1I!
0Z
1S!
16!
#700000
0!
0:
0;
1+
#710000
1!
1:
1;
0+
1t!
1h!
0c!
1T!
0R!
0g!
0f!
0G!
1D!
1b!
1U!
0\!
1Q!
0P!
0I!
0S!
06!
#710001
0-"
0,"
0*"
1)"
0f
0N!
0=!
1A!
0g
0O!
0>!
1C!
0J!
0v
0i
0{
0G
1(!
1U
0j
1*!
0,!
1+!
1&!
#720000
0!
0:
0;
1+
#730000
1!
1:
1;
0+
0h!
1c!
0Y!
1B!
0S
0E
0C
0s!
1d!
0b!
0D!
1I
1u!
0F!
04!
1M
1Z
15!
1f!
#740000
0!
0:
0;
1+
#750000
1!
1:
1;
0+
0t!
1e!
0c!
0]!
1V!
1g!
1G!
0I
0q!
0Z
1N
1b!
1I!
1q!
0N
0r!
1S!
1J!
16!
0U
1G
1r!
0d!
1d!
#760000
0!
0:
0;
1+
#770000
1!
1:
1;
0+
1h!
1c!
1R!
1s!
0g!
0b!
0G!
1X
1A
1\!
0S!
0Q!
1P!
18!
0F
0D
0I!
1Z
1[!
19!
0G
0J!
09!
06!
1U
0\!
0U!
0L!
0?!
1W
#770001
1/"
1-"
0)"
1W!
1f
0A!
1X!
1g
0C!
1z!
1d
1b
1L!
1J!
1v
0(!
0W
0U
1,!
0*!
0+!
0&!
#780000
0!
0:
0;
1+
#790000
1!
1:
1;
0+
1t!
0h!
0c!
0V!
0B!
0@!
1e
1S
1B
1g!
0X
0A
1b!
0Z
0[!
1\!
1U!
1?!
0d
#800000
0!
0:
0;
1+
#810000
1!
1:
1;
0+
1h!
1c!
1v!
0s!
0g!
0d!
0b!
1I
0q!
1N
0r!
#810001
0/"
0-"
1,"
0W!
0f
1N!
0X!
0g
1O!
0z!
0b
0J!
0v
1j
1i
#820000
0!
0:
0;
1+
#830000
1!
1:
1;
0+
0t!
0h!
0e!
0c!
03!
0S
1C
0B
1k
0v!
1X
0I
1q!
1Z
0N
1b!
1o
0i
19
1*
0j
1r!
1q
1p
0,!
1r
12!
1,!
02!
#840000
0!
0:
0;
1+
#850000
1!
1:
1;
0+
1c!
1]!
1V!
1@!
0e
1s!
1g!
0b!
1G!
0X
1I!
0Z
19!
16!
#860000
0!
0:
0;
1+
#870000
1!
1:
1;
0+
1t!
1h!
0c!
0T!
0R!
0K!
1:!
07!
0g!
0G!
1D!
1b!
0U!
08!
0\!
1Q!
0P!
0L!
1;!
09!
1T
0?!
0I!
19!
0T
1U
09!
06!
0U
#870001
1/"
1."
0,"
1)"
1("
1W!
1j!
0N!
1A!
1^!
1X!
1k!
0O!
1C!
1_!
1z!
1b
19!
1#!
0o
1i
1(!
1U
11!
1]
1+!
0q
0p
1j
1*!
0r
1&!
#880000
0!
0:
0;
1+
#890000
1!
1:
1;
0+
1l!
1i!
0h!
1c!
1`!
1Y!
1B!
0C
1B
1@
0u!
1a!
1F!
0s!
1d!
0b!
0D!
1I
0M
0r!
0Y
1Z
0f!
0d!
0Z
#900000
0!
0:
0;
1+
#910000
1!
1:
1;
0+
0t!
0c!
1X
0I
1Z
#920000
0!
0:
0;
1+
#930000
1!
1:
1;
0+
0]!
0V!
0M!
0@!
1<!
#940000
0!
0:
0;
1+
#950000
1!
1:
1;
0+
#950001
0/"
0."
0)"
0("
0W!
0j!
0A!
0^!
#960000
0!
0:
0;
1+
#970000
1!
1:
1;
0+
#980000
0!
0:
0;
1+
#990000
1!
1:
1;
0+
